<?xml version="1.0" encoding="UTF-8"?>

<testsuite name="RomanNumeralGeneratorTest" tests="2" failures="0" errors="0" skipped="0" time="0.032" hostname="Toshiba" timestamp="2014-10-26T09:08:23">
  <testcase classname="RomanNumeralGeneratorTest" name="testNumeralObjectsAreInCorrectOrder" time="0.029"/>
  <testcase classname="RomanNumeralGeneratorTest" name="testCorrectReturnValues" time="0.003"/>
</testsuite>
